Tue Oct  9 18:30:30 CEST 2018
Preloading tcmalloc_minimal.so
Py:Athena            INFO including file "AthenaCommon/Preparation.py"
Py:Athena            INFO using release [AthenaWorkDir-22.0.1] [x86_64-slc6-gcc8-dbg] [atlas-work3/eea13fb904b] -- built on [2018-10-09T1607]
Py:Athena            INFO including file "AthenaCommon/Atlas.UnixStandardJob.py"
Py:Athena            INFO executing ROOT6Setup
Py:Athena            INFO including file "AthenaCommon/Execution.py"
Py:Athena            INFO including file "DataModelRunTests/xAODTestReadFilter_jo.py"
Py:ConfigurableDb    INFO Read module info for 5504 configurables from 72 genConfDb files
Py:ConfigurableDb    INFO No duplicates have been found: that's good !
Py:Athena            INFO including file "DataModelRunTests/loadReadDicts.py"
Py:Athena            INFO including file "EventAthenaPool/EventAthenaPoolItemList_joboptions.py"
Py:Athena            INFO including file "DataModelRunTests/setCatalog.py"
Py:Athena            INFO including file "AthenaCommon/runbatch.py"
[?1034hApplicationMgr       INFO Updating Gaudi::PluginService::SetDebug(level) to level= 'PluginDebugLevel':0
ApplicationMgr       INFO Updating Gaudi::PluginService::SetDebug(level) to level= 'PluginDebugLevel':0
ApplicationMgr    SUCCESS 
====================================================================================================================================
                                                   Welcome to ApplicationMgr (GaudiCoreSvc v30r3)
                                          running on lxplus028.cern.ch on Tue Oct  9 18:30:53 2018
====================================================================================================================================
ApplicationMgr       INFO Successfully loaded modules : AthenaServices
ApplicationMgr       INFO Application Manager Configured successfully
ApplicationMgr       INFO Updating Gaudi::PluginService::SetDebug(level) to level= 'PluginDebugLevel':0
StatusCodeSvc        INFO initialize
AthDictLoaderSvc     INFO in initialize...
AthDictLoaderSvc     INFO acquired Dso-registry
ClassIDSvc           INFO  getRegistryEntries: read 2946 CLIDRegistry entries for module ALL
CoreDumpSvc          INFO install f-a-t-a-l handler... (flag = -1)
CoreDumpSvc          INFO Handling signals: 11(Segmentation fault) 7(Bus error) 4(Illegal instruction) 8(Floating point exception) 
AthenaEventLoopMgr   INFO Initializing AthenaEventLoopMgr - package version AthenaServices-00-00-00
ClassIDSvc           INFO  getRegistryEntries: read 8043 CLIDRegistry entries for module ALL
ClassIDSvc           INFO  getRegistryEntries: read 65 CLIDRegistry entries for module ALL
PyComponentMgr       INFO Initializing PyComponentMgr...
LoadReadDicts        INFO Initializing LoadReadDicts...
MetaDataSvc          INFO Initializing MetaDataSvc - package version AthenaServices-00-00-00
AthenaPoolCnvSvc     INFO Initializing AthenaPoolCnvSvc - package version AthenaPoolCnvSvc-00-00-00
PoolSvc              INFO Set connectionsvc retry/timeout/IDLE timeout to  'ConnectionRetrialPeriod':300/ 'ConnectionRetrialTimeOut':3600/ 'ConnectionTimeOut':5 seconds with connection cleanup disabled
PoolSvc              INFO Frontier compression level set to 5
DBReplicaSvc         INFO Frontier server at (serverurl=http://atlasfrontier-local.cern.ch:8000/atlr)(serverurl=http://atlasfrontier-ai.cern.ch:8000/atlr)(serverurl=http://lcgft-atlas.gridpp.rl.ac.uk:3128/frontierATLAS)(serverurl=http://ccfrontier.in2p3.fr:23128/ccin2p3-AtlasFrontier)(proxyurl=http://ca-proxy.cern.ch:3128)(proxyurl=http://ca-proxy-meyrin.cern.ch:3128)(proxyurl=http://ca-proxy-wigner.cern.ch:3128)(proxyurl=http://atlasbpfrontier.cern.ch:3127)(proxyurl=http://atlasbpfrontier.fnal.gov:3127) will be considered for COOL data
DBReplicaSvc         INFO Read replica configuration from /cvmfs/atlas-nightlies.cern.ch/repo/sw/master/2018-10-08T2213/Athena/22.0.1/InstallArea/x86_64-slc6-gcc8-dbg/share/dbreplica.config
DBReplicaSvc         INFO Total of 10 servers found for host lxplus028.cern.ch [ATLF ATLAS_COOLPROD atlas_dd ATLAS_CONFIG INT8R INTR ATONR_COOL ATONR_CONF DEVDB11 ATLF ]
PoolSvc              INFO Successfully setup replica sorting algorithm
PoolSvc              INFO Setting up APR FileCatalog and Streams
PoolSvc              INFO POOL WriteCatalog is file:xAODTestReadFilter_catalog.xml
DbSession            INFO     Open     DbSession    
Domain[ROOT_All]     INFO >   Access   DbDomain     READ      [ROOT_All] 
EventSelector        INFO EventSelection with query 
PoolSvc              INFO File is not in Catalog! Attempt to open it anyway.
DbSession            INFO     Open     DbSession    
Domain[ROOT_All]     INFO ->  Access   DbDatabase   READ      [ROOT_All] 1AA9ED5E-1E4B-3A55-A718-BF5CAC995112
Domain[ROOT_All]     INFO                           xaoddata.root
RootDatabase.open    INFO xaoddata.root File version:61404
xaoddata.root        INFO Database being retired...
Domain[ROOT_All]     INFO ->  Deaccess DbDatabase   READ      [ROOT_All] 1AA9ED5E-1E4B-3A55-A718-BF5CAC995112
Domain[ROOT_All]     INFO >   Deaccess DbDomain     READ      [ROOT_All] 
PoolSvc              INFO File is not in Catalog! Attempt to open it anyway.
DbSession            INFO     Open     DbSession    
Domain[ROOT_All]     INFO >   Access   DbDomain     READ      [ROOT_All] 
Domain[ROOT_All]     INFO ->  Access   DbDatabase   READ      [ROOT_All] 1AA9ED5E-1E4B-3A55-A718-BF5CAC995112
Domain[ROOT_All]     INFO                           xaoddata.root
RootDatabase.open    INFO xaoddata.root File version:61404
xaoddata.root        INFO Database being retired...
Domain[ROOT_All]     INFO ->  Deaccess DbDatabase   READ      [ROOT_All] 1AA9ED5E-1E4B-3A55-A718-BF5CAC995112
Domain[ROOT_All]     INFO >   Deaccess DbDomain     READ      [ROOT_All] 
DbSession            INFO     Open     DbSession    
Domain[ROOT_All]     INFO >   Access   DbDomain     READ      [ROOT_All] 
Domain[ROOT_All]     INFO ->  Access   DbDatabase   READ      [ROOT_All] 92B5DAB9-E2CF-1247-8C17-FC376BDD686E
Domain[ROOT_All]     INFO                           xaoddata.root
RootDatabase.open    INFO xaoddata.root File version:61404
ClassIDSvc           INFO  getRegistryEntries: read 2673 CLIDRegistry entries for module ALL
EventPersistenc...   INFO Added successfully Conversion service:AthenaPoolCnvSvc
ClassIDSvc           INFO  getRegistryEntries: read 2 CLIDRegistry entries for module ALL
DecisionSvc          INFO Inserting stream: Stream1 with no Algs
OutputStreamSeq...   INFO Initializing OutputStreamSequencerSvc - package version AthenaServices-00-00-00
Stream1.Stream1...   INFO Initializing Stream1.Stream1Tool - package version AthenaServices-00-00-00
Stream1.Stream1...   INFO Initializing Stream1.Stream1_MakeEventStreamInfo - package version OutputStreamAthenaPool-00-00-00
Stream1              INFO Found HelperTools = PrivateToolHandleArray(['MakeEventStreamInfo/Stream1_MakeEventStreamInfo'])
Stream1              INFO Data output: xaoddata_filt.root
Stream1              INFO I/O reinitialization...
HistogramPersis...WARNING Histograms saving not required.
AthenaEventLoopMgr   INFO Setup EventSelector service EventSelector
ApplicationMgr       INFO Application Manager Initialized successfully
xaoddata.root        INFO Database being retired...
Domain[ROOT_All]     INFO ->  Deaccess DbDatabase   READ      [ROOT_All] 92B5DAB9-E2CF-1247-8C17-FC376BDD686E
Domain[ROOT_All]     INFO >   Deaccess DbDomain     READ      [ROOT_All] 
DbSession            INFO     Open     DbSession    
Domain[ROOT_All]     INFO >   Access   DbDomain     READ      [ROOT_All] 
Domain[ROOT_All]     INFO ->  Access   DbDatabase   READ      [ROOT_All] 92B5DAB9-E2CF-1247-8C17-FC376BDD686E
Domain[ROOT_All]     INFO                           xaoddata.root
RootDatabase.open    INFO xaoddata.root File version:61404
ApplicationMgr       INFO Application Manager Started successfully
ClassIDSvc           INFO  getRegistryEntries: read 337 CLIDRegistry entries for module ALL
AlgResourcePool      INFO TopAlg list empty. Recovering the one of Application Manager
AthenaPoolConve...   INFO massageEventInfo: unable to get OverrideRunNumberFromInput property from EventSelector 
AthenaEventLoopMgr   INFO   ===>>>  start of run 0    <<<===
AthenaEventLoopMgr   INFO   ===>>>  start processing event #0, run #0 0 events processed so far  <<<===
ClassIDSvc           INFO  getRegistryEntries: read 65 CLIDRegistry entries for module ALL
DbSession            INFO     Open     DbSession    
Domain[ROOT_All]     INFO >   Access   DbDomain     UPDATE    [ROOT_All] 
Domain[ROOT_All]     INFO ->  Access   DbDatabase   CREATE    [ROOT_All] 90008EB5-8A01-C74B-882D-3962D3570A6B
Domain[ROOT_All]     INFO                           xaoddata_filt.root
RootDatabase.open    INFO xaoddata_filt.root File version:61404
StorageSvc           INFO Building shape according to reflection information using shape ID for:
StorageSvc           INFO xAOD::AuxContainerBase [C87C71B3-B03F-42FC-AF99-DF497F148397]
AthenaEventLoopMgr   INFO   ===>>>  done processing event #0, run #0 1 events processed so far  <<<===
AthenaEventLoopMgr   INFO   ===>>>  start processing event #1, run #0 1 events processed so far  <<<===
ClassIDSvc           INFO  getRegistryEntries: read 18 CLIDRegistry entries for module ALL
AthenaEventLoopMgr   INFO   ===>>>  done processing event #1, run #0 2 events processed so far  <<<===
AthenaEventLoopMgr   INFO   ===>>>  start processing event #2, run #0 2 events processed so far  <<<===
AthenaEventLoopMgr   INFO   ===>>>  done processing event #2, run #0 3 events processed so far  <<<===
AthenaEventLoopMgr   INFO   ===>>>  start processing event #3, run #0 3 events processed so far  <<<===
AthenaEventLoopMgr   INFO   ===>>>  done processing event #3, run #0 4 events processed so far  <<<===
AthenaEventLoopMgr   INFO   ===>>>  start processing event #4, run #0 4 events processed so far  <<<===
AthenaEventLoopMgr   INFO   ===>>>  done processing event #4, run #0 5 events processed so far  <<<===
AthenaEventLoopMgr   INFO   ===>>>  start processing event #5, run #0 5 events processed so far  <<<===
AthenaEventLoopMgr   INFO   ===>>>  done processing event #5, run #0 6 events processed so far  <<<===
AthenaEventLoopMgr   INFO   ===>>>  start processing event #6, run #0 6 events processed so far  <<<===
AthenaEventLoopMgr   INFO   ===>>>  done processing event #6, run #0 7 events processed so far  <<<===
AthenaEventLoopMgr   INFO   ===>>>  start processing event #7, run #0 7 events processed so far  <<<===
AthenaEventLoopMgr   INFO   ===>>>  done processing event #7, run #0 8 events processed so far  <<<===
AthenaEventLoopMgr   INFO   ===>>>  start processing event #8, run #0 8 events processed so far  <<<===
AthenaEventLoopMgr   INFO   ===>>>  done processing event #8, run #0 9 events processed so far  <<<===
AthenaEventLoopMgr   INFO   ===>>>  start processing event #9, run #0 9 events processed so far  <<<===
AthenaEventLoopMgr   INFO   ===>>>  done processing event #9, run #0 10 events processed so far  <<<===
AthenaEventLoopMgr   INFO   ===>>>  start processing event #10, run #0 10 events processed so far  <<<===
AthenaEventLoopMgr   INFO   ===>>>  done processing event #10, run #0 11 events processed so far  <<<===
AthenaEventLoopMgr   INFO   ===>>>  start processing event #11, run #0 11 events processed so far  <<<===
AthenaEventLoopMgr   INFO   ===>>>  done processing event #11, run #0 12 events processed so far  <<<===
AthenaEventLoopMgr   INFO   ===>>>  start processing event #12, run #0 12 events processed so far  <<<===
AthenaEventLoopMgr   INFO   ===>>>  done processing event #12, run #0 13 events processed so far  <<<===
AthenaEventLoopMgr   INFO   ===>>>  start processing event #13, run #0 13 events processed so far  <<<===
AthenaEventLoopMgr   INFO   ===>>>  done processing event #13, run #0 14 events processed so far  <<<===
AthenaEventLoopMgr   INFO   ===>>>  start processing event #14, run #0 14 events processed so far  <<<===
AthenaEventLoopMgr   INFO   ===>>>  done processing event #14, run #0 15 events processed so far  <<<===
AthenaEventLoopMgr   INFO   ===>>>  start processing event #15, run #0 15 events processed so far  <<<===
AthenaEventLoopMgr   INFO   ===>>>  done processing event #15, run #0 16 events processed so far  <<<===
AthenaEventLoopMgr   INFO   ===>>>  start processing event #16, run #0 16 events processed so far  <<<===
AthenaEventLoopMgr   INFO   ===>>>  done processing event #16, run #0 17 events processed so far  <<<===
AthenaEventLoopMgr   INFO   ===>>>  start processing event #17, run #0 17 events processed so far  <<<===
AthenaEventLoopMgr   INFO   ===>>>  done processing event #17, run #0 18 events processed so far  <<<===
AthenaEventLoopMgr   INFO   ===>>>  start processing event #18, run #0 18 events processed so far  <<<===
AthenaEventLoopMgr   INFO   ===>>>  done processing event #18, run #0 19 events processed so far  <<<===
AthenaEventLoopMgr   INFO   ===>>>  start processing event #19, run #0 19 events processed so far  <<<===
AthenaEventLoopMgr   INFO   ===>>>  done processing event #19, run #0 20 events processed so far  <<<===
Stream1              INFO Records written: 21
xaoddata.root        INFO Database being retired...
Domain[ROOT_All]     INFO ->  Deaccess DbDatabase   READ      [ROOT_All] 92B5DAB9-E2CF-1247-8C17-FC376BDD686E
xaoddata_filt.root   INFO Database being retired...
Domain[ROOT_All]     INFO ->  Deaccess DbDatabase   CREATE    [ROOT_All] 90008EB5-8A01-C74B-882D-3962D3570A6B
Domain[ROOT_All]     INFO >   Deaccess DbDomain     UPDATE    [ROOT_All] 
ApplicationMgr       INFO Application Manager Stopped successfully
IncidentProcAlg1     INFO Finalize
LoadReadDicts        INFO Finalizing LoadReadDicts...
IncidentProcAlg2     INFO Finalize
DecisionSvc          INFO Finalized successfully.
Domain[ROOT_All]     INFO >   Deaccess DbDomain     READ      [ROOT_All] 
XMLCatalog           INFO File 'xAODTestReadFilter_catalog.xml' does not exist. New file created.
PyComponentMgr       INFO Finalizing PyComponentMgr...
AthDictLoaderSvc     INFO in finalize...
ToolSvc              INFO Removing all tools created by ToolSvc
ChronoStatSvc.f...   INFO  Service finalized successfully 
ApplicationMgr       INFO Application Manager Finalized successfully
ApplicationMgr       INFO Application Manager Terminated successfully
Py:Athena            INFO leaving with code 0: "successful run"
